Lab 3: Hip-Hop Lyrics
…
    avg = mean(familiarity),
  ) |> 
  distinct(
    word,
    avg
  ) |> 
  summarize(
    avg
  ) |> 
  filter(
    avg == min(avg) | 
      avg == max(avg)
  )

# A tibble: 26 × 2
   word                avg
   <chr>             <dbl>
 1 5-0                 4.2
 2 ay yo trip          1  
 3 beezy               1  
 4 break someone out   1  
 5 catch the vapors    1  
 6 crossroads          1  
 7 crump               1  
 8 dap                 1  
 9 dollar cab          1  
10 domino              1  
# … with 16 more rows
For white men over 30, the most familiar word was “5-0” and there were 25 unfamiliar words, including “dollar cab,” “dap,” and others.

Study Subjects

hiphop_clean |> 
  filter(
    age >= 17,
    age <= 23,
    toupper(sex) == "MALE",
    bieber >= 3,
    city <= 60000,
    city >= 10000
  )

# A tibble: 64 × 39
   word    subj  sex     age ethnic  city county  intl vocal class…¹  folk  rock
   <chr>   <chr> <chr> <dbl> <chr>  <dbl>  <dbl> <dbl> <dbl>   <dbl> <dbl> <dbl>
 1 [to be… p17   Male     18 white  56377 331582     0     1       0     0     1
 2 5-0     p17   Male     18 white  56377 331582     0     1       0     0     1
 3 A-town  p17   Male     18 white  56377 331582     0     1       0     0     1
 4 ashy    p17   Male     18 white  56377 331582     0     1       0     0     1
 5 ay yo … p17   Male     18 white  56377 331582     0     1       0     0     1
 6 ballin' p17   Male     18 white  56377 331582     0     1       0     0     1
 7 beezy   p17   Male     18 white  56377 331582     0     1       0     0     1
 8 bones   p17   Male     18 white  56377 331582     0     1       0     0     1
 9 boo     p17   Male     18 white  56377 331582     0     1       0     0     1
10 boughie p17   Male     18 white  56377 331582     0     1       0     0     1
# … with 54 more rows, 27 more variables: country <dbl>, pop <dbl>,
#   alternative <dbl>, hiphop <dbl>, unclassifiable <dbl>, countyBlack <dbl>,
#   jayz <dbl>, barkley <dbl>, boondocks <dbl>, monique <dbl>, bieber <dbl>,
#   asianMove <dbl>, blackMove <dbl>, hispanicMove <dbl>, nativeMove <dbl>,
#   SAAMEMove <dbl>, whiteMove <dbl>, blackWeekly <dbl>, jayz1 <dbl>,
#   boondocks1 <dbl>, familiarity <dbl>, trial <dbl>, fam1 <dbl>,
#   popularityScore <dbl>, numPreferredArtists <dbl>, …
…
